Into Veteran Suicide in the U.S.
…
## Joining, by = c("Year", "age")

pop_deaths_sex_age_2005_2018

## # A tibble: 168 x 7
## # Groups:   Year [14]
##     Year age   sex    group       deaths      pop  rate
##    <dbl> <chr> <chr>  <chr>        <dbl>    <dbl> <dbl>
##  1  2005 1834 male   Non-Veteran   6464 30481577 21.2 
##  2  2005 1834 female Non-Veteran   1417 31913753  4.44
##  3  2005 1834 male   Veteran        532  1852000 28.7 
##  4  2005 1834 female Veteran         42   400000 10.5 
##  5  2005 3554 male   Non-Veteran   8326 34939919 23.8 
##  6  2005 3554 female Non-Veteran   3093 42526004  7.27
##  7  2005 3554 male   Veteran       2006  6701000 29.9 
##  8  2005 3554 female Veteran        116   840000 13.8 
##  9  2005 55+   male   Non-Veteran   4471 15146953 29.5 
## 10  2005 55+   female Non-Veteran   1786 34970238  5.11
## #  with 158 more rows
…
## Warning in mask$eval_all_mutate(dots[[i]]): NAs introduced by coercion

## Warning: Problem with `mutate()` input `vet_rate`.
## x NAs introduced by coercion
##  Input `vet_rate` is `as.numeric(vet_rate)`.

## Warning in mask$eval_all_mutate(dots[[i]]): NAs introduced by coercion

  #mutate(state=tolower(state))

pop_deaths_state_age

## # A tibble: 699 x 7
##     Year region    state         vet_deaths vet_rate pop_deaths pop_rate
##    <int> <chr>     <chr>              <dbl>    <dbl>      <dbl>    <dbl>
##  1  2005 Northeast Connecticut           49     18          284     11.1
##  2  2005 Northeast Maine                 46     31.9        173     17.2
##  3  2005 Northeast Massachusetts         67     14.1        468      9.9
##  4  2005 Northeast New Hampshire         33     25.2        158     16.3
##  5  2005 Northeast New Jersey            65     11.5        524      8.2
##  6  2005 Northeast New York             162     14         1154      8.2
##  7  2005 Northeast Pennsylvania         279     24.7       1393     15.2
##  8  2005 Northeast Rhode Island          13     14.6         68      8.7
##  9  2005 Northeast Vermont               14     25.5         76     16.2
## 10  2005 Midwest   Illinois             198     22.4       1065     11.6
## #  with 689 more rows
…
## Warning: Problem with `mutate()` input `deaths`.
## x NAs introduced by coercion
##  Input `deaths` is `as.numeric(deaths)`.

## Warning in mask$eval_all_mutate(dots[[i]]): NAs introduced by coercion

pop_deaths_state_method

## # A tibble: 4,617 x 7
##     Year region    state       group  method                deaths group_percent
##    <dbl> <chr>     <chr>       <chr>  <chr>                  <dbl>         <dbl>
##  1  2005 Northeast Connecticut Veter Firearms                  30          61.2
##  2  2005 Northeast Connecticut Veter Other and low-count      19          38.8
##  3  2005 Northeast Maine       Veter Firearms                  33          71.7
##  4  2005 Northeast Maine       Veter Other and low-count      13          28.3
##  5  2005 Northeast Massachuse Veter Suffocation               19          28.4
##  6  2005 Northeast Massachuse Veter Firearms                  32          47.8
##  7  2005 Northeast Massachuse Veter Other and low-count      16          23.9
##  8  2005 Northeast New Hampsh Veter Other and low-count      33         100  
##  9  2005 Northeast New Jersey  Veter Suffocation               14          21.5
## 10  2005 Northeast New Jersey  Veter Firearms                  31          47.7
## #  with 4,607 more rows
…
# figure 2
#pop_deaths_sex_age_2005_2018 %>%
#  ggplot(aes(y = sex, x = deaths, fill=group))+
#  theme_igray()+
#    geom_col(position = "dodge") +
#  labs(title = "Number of Veteran Suicides by Gender", y = "Sex", x = "# of suicides")

# Figure 4:
states_map <- map_data("state")
pop_deaths_state_age

## # A tibble: 699 x 7
##     Year region    state         vet_deaths vet_rate pop_deaths pop_rate
##    <int> <chr>     <chr>              <dbl>    <dbl>      <dbl>    <dbl>
##  1  2005 Northeast Connecticut           49     18          284     11.1
##  2  2005 Northeast Maine                 46     31.9        173     17.2
##  3  2005 Northeast Massachusetts         67     14.1        468      9.9
##  4  2005 Northeast New Hampshire         33     25.2        158     16.3
##  5  2005 Northeast New Jersey            65     11.5        524      8.2
##  6  2005 Northeast New York             162     14         1154      8.2
##  7  2005 Northeast Pennsylvania         279     24.7       1393     15.2
##  8  2005 Northeast Rhode Island          13     14.6         68      8.7
##  9  2005 Northeast Vermont               14     25.5         76     16.2
## 10  2005 Midwest   Illinois             198     22.4       1065     11.6
## #  with 689 more rows
…
